Introduction to Statistical Learning - Homework 4 Solutions
…
results <- tune_grid(lasso_spec,
                     preprocessor = rec,
                     grid = lam_grid, 
                     resamples = sim_cv)

Warning: package 'glmnet' was built under R version 4.3.2

Warning: package 'Matrix' was built under R version 4.3.2

metrics<- results |>
            collect_metrics()

metrics

# A tibble: 66 × 7
   penalty .metric .estimator   mean     n     std_err .config              
     <dbl> <chr>   <chr>       <dbl> <int>       <dbl> <chr>                
 1       0 rmse    standard   355.       5 49.1        Preprocessor1_Model01
 2       0 rsq     standard     1.00     5  0.00000335 Preprocessor1_Model01
 3      10 rmse    standard   355.       5 49.1        Preprocessor1_Model02
 4      10 rsq     standard     1.00     5  0.00000335 Preprocessor1_Model02
 5      20 rmse    standard   355.       5 49.1        Preprocessor1_Model03
 6      20 rsq     standard     1.00     5  0.00000335 Preprocessor1_Model03
 7      30 rmse    standard   355.       5 49.1        Preprocessor1_Model04
 8      30 rsq     standard     1.00     5  0.00000335 Preprocessor1_Model04
 9      40 rmse    standard   355.       5 49.1        Preprocessor1_Model05
10      40 rsq     standard     1.00     5  0.00000335 Preprocessor1_Model05
# ℹ 56 more rows
…
rec <- recipe(ysim ~ ., data = simdat_alt_2) |>
  step_scale(all_predictors())

results <- tune_grid(lasso_spec,
                     preprocessor = rec,
                     grid = lam_grid, 
                     resamples = sim_cv)

metrics<- results |>
            collect_metrics()

metrics

# A tibble: 22 × 7
   penalty .metric .estimator         mean     n std_err .config              
     <dbl> <chr>   <chr>             <dbl> <int>   <dbl> <chr>                
 1       0 rmse    standard   510011538.       5 3.43e+8 Preprocessor1_Model01
 2       0 rsq     standard           1.00     5 1.22e-6 Preprocessor1_Model01
 3      10 rmse    standard   510011538.       5 3.43e+8 Preprocessor1_Model02
 4      10 rsq     standard           1.00     5 1.22e-6 Preprocessor1_Model02
 5      20 rmse    standard   510011538.       5 3.43e+8 Preprocessor1_Model03
 6      20 rsq     standard           1.00     5 1.22e-6 Preprocessor1_Model03
 7      30 rmse    standard   510011538.       5 3.43e+8 Preprocessor1_Model04
 8      30 rsq     standard           1.00     5 1.22e-6 Preprocessor1_Model04
 9      40 rmse    standard   510011538.       5 3.43e+8 Preprocessor1_Model05
10      40 rsq     standard           1.00     5 1.22e-6 Preprocessor1_Model05
# ℹ 12 more rows
…
